[
    {
        "id": 1,
        "username": "string",
        "firstName": "string",
        "lastName": "string",
        "email": "string",
        "password": "string",
        "phone": "string",
        "userStatus": 0
    },
	{
        "id": 1123124,
        "category": {
            "id": 1123124,
            "name": "string"
        },
        "name": "doggie",
        "photoUrls": [
            "string"
        ],
        "tags": [
            {
                "id": 1123124,
                "name": "string"
            }
        ],
        "status": "available"
    },
	{
        "id": 1123124,
        "category": {
            "id": 0,
            "name": "string"
        },
        "name": "PsyDuck",
        "photoUrls": [
            "string"
        ],
        "tags": [
            {
                "id": 0,
                "name": "string"
            }
        ],
        "status": "available"
    }
]